Reproducible Research: Peer Assessment 1
…
What is mean total number of steps taken per day?

Initially the table is grouped by date, then we generate a new table with the sum, mean and median of steps for each day.

activity<- group_by(activity, date)
x<- summarise(activity, sum= sum(steps), mean = mean (steps), median = median(steps))

## `summarise()` ungrouping output (override with `.groups` argument)

x

## # A tibble: 53 x 4
##    date         sum   mean median
##    <date>     <int>  <dbl>  <dbl>
##  1 2012-10-02   126  0.438      0
##  2 2012-10-03 11352 39.4        0
##  3 2012-10-04 12116 42.1        0
##  4 2012-10-05 13294 46.2        0
##  5 2012-10-06 15420 53.5        0
##  6 2012-10-07 11015 38.2        0
##  7 2012-10-09 12811 44.5        0
##  8 2012-10-10  9900 34.4        0
##  9 2012-10-11 10304 35.8        0
## 10 2012-10-12 17382 60.4        0
## #  with 43 more rows
…
Create an data table with steps and interval and grouped by interval, then calculate the mean for each interval.

con<- cbind(activity$steps, activity$interval)
con<- as.data.frame(con)
con<- group_by(con, con[,2])

y<- summarise(con, mean = mean (V1))

## `summarise()` ungrouping output (override with `.groups` argument)

colnames(y)<- c("steps", "interval")
y

## # A tibble: 288 x 2
##    steps interval
##    <int>    <dbl>
##  1     0   1.72  
##  2     5   0.340 
##  3    10   0.132 
##  4    15   0.151 
##  5    20   0.0755
##  6    25   2.09  
##  7    30   0.528 
##  8    35   0.868 
##  9    40   0     
## 10    45   1.47  
## #  with 278 more rows
…
Make a histogram of the total number of steps taken each day and Calculate and report the mean and median total number of steps taken per day. Do these values differ from the estimates from the first part of the assignment? What is the impact of imputing missing data on the estimates of the total daily number of steps?

activity<- group_by(activity, date)

x<- summarise(activity, sum= sum(steps), mean = mean (steps), median = median(steps))

## `summarise()` ungrouping output (override with `.groups` argument)

x

## # A tibble: 61 x 4
##    date          sum   mean median
##    <date>      <dbl>  <dbl>  <dbl>
##  1 2012-10-01 10766. 37.4     34.1
##  2 2012-10-02   126   0.438    0  
##  3 2012-10-03 11352  39.4      0  
##  4 2012-10-04 12116  42.1      0  
##  5 2012-10-05 13294  46.2      0  
##  6 2012-10-06 15420  53.5      0  
##  7 2012-10-07 11015  38.2      0  
##  8 2012-10-08 10766. 37.4     34.1
##  9 2012-10-09 12811  44.5      0  
## 10 2012-10-10  9900  34.4      0  
## #  with 51 more rows
…
