…
```r
activity<- group_by(activity, date)
x<- summarise(activity, sum= sum(steps), mean = mean (steps), median = median(steps))
```

```
## `summarise()` ungrouping output (override with `.groups` argument)
```

```r
x
```

```
## # A tibble: 53 x 4
##    date         sum   mean median
##    <date>     <int>  <dbl>  <dbl>
##  1 2012-10-02   126  0.438      0
##  2 2012-10-03 11352 39.4        0
##  3 2012-10-04 12116 42.1        0
##  4 2012-10-05 13294 46.2        0
##  5 2012-10-06 15420 53.5        0
##  6 2012-10-07 11015 38.2        0
##  7 2012-10-09 12811 44.5        0
##  8 2012-10-10  9900 34.4        0
##  9 2012-10-11 10304 35.8        0
## 10 2012-10-12 17382 60.4        0
## # … with 43 more rows
```
…
y<- summarise(con, mean = mean (V1))
```

```
## `summarise()` ungrouping output (override with `.groups` argument)
```

```r
colnames(y)<- c("steps", "interval")
y
```

```
## # A tibble: 288 x 2
##    steps interval
##    <int>    <dbl>
##  1     0   1.72  
##  2     5   0.340 
##  3    10   0.132 
##  4    15   0.151 
##  5    20   0.0755
##  6    25   2.09  
##  7    30   0.528 
##  8    35   0.868 
##  9    40   0     
## 10    45   1.47  
## # … with 278 more rows
```
…
